\relax 
\select@language{english}
\@writefile{toc}{\select@language{english}}
\@writefile{lof}{\select@language{english}}
\@writefile{lot}{\select@language{english}}
\@writefile{toc}{\contentsline {section}{\numberline {1}Problem 1}{2}}
\newlabel{Eq:cond1}{{1}{2}}
\@writefile{toc}{\contentsline {subsection}{\numberline {1.1}Lagrangian polynomials}{2}}
\newlabel{eq:Lag}{{2}{2}}
\newlabel{eq:Lag_base}{{3}{2}}
\@writefile{lof}{\contentsline {figure}{\numberline {1}{\ignorespaces Sample of Lagrangian basis with different number of stencils; N=3(left)\relax }}{2}}
\providecommand*\caption@xref[2]{\@setref\relax\@undefined{#1}}
\newlabel{fig:Lag_base}{{1}{2}}
\@writefile{toc}{\contentsline {subsection}{\numberline {1.2}First derivative on different stencil}{2}}
\newlabel{eq:Lag_base}{{4}{2}}
\newlabel{fig:collocated}{{\caption@xref {fig:collocated}{ on input line 76}}{3}}
\@writefile{lof}{\contentsline {figure}{\numberline {2}{\ignorespaces Truncation error of collocated stencil. Top line: centered;bottom line:bias\relax }}{3}}
\@writefile{lof}{\contentsline {figure}{\numberline {3}{\ignorespaces Truncation error of staggered stencil. Top line: centered;bottom line:bias\relax }}{3}}
\newlabel{fig:staggered}{{3}{3}}
\@writefile{toc}{\contentsline {subsection}{\numberline {1.3}Discussion on accuracy and polynomial order}{3}}
\@writefile{toc}{\contentsline {subsection}{\numberline {1.4}Vandermonde approach interpolation an derivation}{4}}
\newlabel{eq:Van tot}{{5}{4}}
\newlabel{fig:Van}{{\caption@xref {fig:Van}{ on input line 133}}{4}}
\@writefile{lof}{\contentsline {figure}{\numberline {4}{\ignorespaces Comparision of Vandermonde approach and Lagrangian on evaluation of first order derivation.\relax }}{4}}
\@writefile{toc}{\contentsline {section}{\numberline {2}Problem 2}{4}}
\@writefile{toc}{\contentsline {subsection}{\numberline {2.1}Taylor series}{4}}
\@writefile{toc}{\contentsline {subsubsection}{\numberline {2.1.1}1st derivative 2nd accuracy:Dx\_2}{5}}
\@writefile{toc}{\contentsline {subsubsection}{\numberline {2.1.2}1st derivative 3nd accuracy:Dx\_2}{5}}
\@writefile{toc}{\contentsline {subsubsection}{\numberline {2.1.3}2st derivative 2nd accuracy:Dxx\_2}{6}}
\@writefile{toc}{\contentsline {subsubsection}{\numberline {2.1.4}2st derivative 2nd accuracy:Dxx\_3}{6}}
\@writefile{toc}{\contentsline {subsection}{\numberline {2.2}Spy plot}{7}}
\@writefile{lof}{\contentsline {figure}{\numberline {5}{\ignorespaces Spy plot of four generated operator\relax }}{7}}
\newlabel{fig:perturbation}{{5}{7}}
\@writefile{toc}{\contentsline {subsection}{\numberline {2.3}Boundary value problem}{7}}
\newlabel{Eq:PDE}{{14}{7}}
\@writefile{lof}{\contentsline {figure}{\numberline {6}{\ignorespaces RMS of boundary value problem\relax }}{8}}
\newlabel{fig:bvp}{{6}{8}}
\@writefile{toc}{\contentsline {section}{\numberline {3}Problem 3}{8}}
\@writefile{toc}{\contentsline {subsection}{\numberline {3.1}Operator}{8}}
\newlabel{eq:Lag_base2}{{16}{8}}
\@writefile{toc}{\contentsline {subsection}{\numberline {3.2}Result}{8}}
\@writefile{lof}{\contentsline {figure}{\numberline {7}{\ignorespaces RMS of non-uniform grid with 2nd(left) and 4th(right) accuracy.\relax }}{9}}
\newlabel{fig:perturbation}{{7}{9}}
