\relax 
\select@language{english}
\@writefile{toc}{\select@language{english}}
\@writefile{lof}{\select@language{english}}
\@writefile{lot}{\select@language{english}}
\@writefile{toc}{\contentsline {section}{\numberline {1}Problem 1}{2}}
\@writefile{toc}{\contentsline {subsection}{\numberline {1.1}linear problem}{2}}
\newlabel{eq:linear gov}{{1}{2}}
\@writefile{toc}{\contentsline {subsubsection}{\numberline {1.1.1}spy plot}{2}}
\newlabel{eq:linear ope}{{2}{2}}
\@writefile{lof}{\contentsline {figure}{\numberline {1}{\ignorespaces Spy plot for the whole spacial discretion operator under homogeneous (left) and Dirichlet boundary conditon.\relax }}{2}}
\providecommand*\caption@xref[2]{\@setref\relax\@undefined{#1}}
\newlabel{fig:spy}{{1}{2}}
\@writefile{toc}{\contentsline {subsubsection}{\numberline {1.1.2}Grid size and wavenumber}{2}}
\newlabel{eq:linear ope}{{3}{2}}
\@writefile{lof}{\contentsline {figure}{\numberline {2}{\ignorespaces (a): the iteration step need for different relax factor w; (b) history of residue; (c) normalized residue. (b-c) is computed using the optimised w determined in (a)\relax }}{3}}
\newlabel{fig:gauss}{{2}{3}}
\@writefile{toc}{\contentsline {subsubsection}{\numberline {1.1.3}Reynolds number effect}{3}}
\@writefile{lof}{\contentsline {figure}{\numberline {3}{\ignorespaces (a): the iteration step need for different relax factor w; (b) history of residue; (c) normalized residue. (b-c) is computed using the optimised w determined in (a)\relax }}{3}}
\newlabel{fig:reynolds}{{3}{3}}
\@writefile{toc}{\contentsline {subsection}{\numberline {1.2}Non linear problem}{4}}
\newlabel{eq:nonlinear}{{4}{4}}
\newlabel{eq:nonlinear (a)}{{5}{4}}
\newlabel{eq:nonlinear (b)}{{6}{4}}
\@writefile{lof}{\contentsline {figure}{\numberline {4}{\ignorespaces Comparison of roundoff error for the 4 floating-point formats \relax }}{4}}
\newlabel{fig:non}{{4}{4}}
\@writefile{toc}{\contentsline {section}{\numberline {2}Problem 2}{4}}
\@writefile{toc}{\contentsline {subsection}{\numberline {2.1}result}{4}}
\@writefile{lof}{\contentsline {figure}{\numberline {5}{\ignorespaces Evolution of taylor-green vortex with offest. From left to right: u, v, p\relax }}{5}}
\newlabel{fig:conver}{{5}{5}}
\@writefile{toc}{\contentsline {subsection}{\numberline {2.2}Runge-Kutta}{5}}
\newlabel{eq:d}{{7}{5}}
\newlabel{eq:d}{{8}{5}}
\@writefile{lof}{\contentsline {figure}{\numberline {6}{\ignorespaces Evolution of taylor-green vortex with offest. From left to right: u, v, p\relax }}{6}}
\newlabel{fig:taylor1}{{6}{6}}
\newlabel{fig:taylor rms}{{\caption@xref {fig:taylor rms}{ on input line 221}}{7}}
\@writefile{toc}{\contentsline {section}{\numberline {3}bonus}{7}}
\@writefile{lof}{\contentsline {figure}{\numberline {7}{\ignorespaces Evolution of taylor-green vortex with offest. From left to right: u, v, p\relax }}{8}}
\newlabel{fig:6combine}{{7}{8}}
