\relax 
\select@language{english}
\@writefile{toc}{\select@language{english}}
\@writefile{lof}{\select@language{english}}
\@writefile{lot}{\select@language{english}}
\@writefile{toc}{\contentsline {section}{\numberline {1}Problem 1}{2}}
\newlabel{Eq:main}{{1}{2}}
\@writefile{toc}{\contentsline {subsection}{\numberline {1.1}Error Analysis}{2}}
\providecommand*\caption@xref[2]{\@setref\relax\@undefined{#1}}
\newlabel{fig:rms}{{\caption@xref {fig:rms}{ on input line 55}}{2}}
\@writefile{lof}{\contentsline {figure}{\numberline {1}{\ignorespaces Comparison of RMS decay of two MPI process. F: Fake ghost cell; T: True ghost cell.\relax }}{2}}
\@writefile{toc}{\contentsline {subsection}{\numberline {1.2}Scaling}{3}}
\newlabel{Eq:strong}{{2}{3}}
\newlabel{Eq:weak}{{3}{3}}
\newlabel{fig:scaling}{{\caption@xref {fig:scaling}{ on input line 79}}{3}}
\@writefile{lof}{\contentsline {figure}{\numberline {2}{\ignorespaces Comparison of strong and weak scaling of two MPI process. F: Fake ghost cell; T: True ghost cell.\relax }}{3}}
\@writefile{lot}{\contentsline {table}{\numberline {1}{\ignorespaces Detail time cost of two sets of mpi."total mpi" means the total time spend on mpi,including the point-to-point communication and reduce time\relax }}{4}}
\newlabel{tab:time}{{1}{4}}
