\relax 
\select@language{english}
\@writefile{toc}{\select@language{english}}
\@writefile{lof}{\select@language{english}}
\@writefile{lot}{\select@language{english}}
\@writefile{toc}{\contentsline {section}{\numberline {1}Problem 1}{2}}
\@writefile{lof}{\contentsline {figure}{\numberline {1}{\ignorespaces Comparison of roundoff error for the 4 floating-point formats \relax }}{2}}
\providecommand*\caption@xref[2]{\@setref\relax\@undefined{#1}}
\newlabel{fig:roundoff}{{1}{2}}
\@writefile{toc}{\contentsline {section}{\numberline {2}Problem 2}{3}}
\@writefile{toc}{\contentsline {subsection}{\numberline {2.1}P2 (a)}{3}}
\newlabel{eq:a}{{1}{3}}
\newlabel{eq:b}{{2}{3}}
\newlabel{eq:bb}{{3}{3}}
\newlabel{eq:c}{{4}{3}}
\newlabel{eq:d}{{5}{3}}
\@writefile{toc}{\contentsline {subsection}{\numberline {2.2}P2 (b)}{3}}
\@writefile{lof}{\contentsline {figure}{\numberline {2}{\ignorespaces Comparison of 6 combination of space and time scheme at N=10,25,50,100.\relax }}{4}}
\newlabel{fig:6combine}{{2}{4}}
\@writefile{toc}{\contentsline {subsection}{\numberline {2.3}P2 (c)}{4}}
\@writefile{lof}{\contentsline {figure}{\numberline {3}{\ignorespaces RMS in terms of time and space of Crank-Nicholson scheme\relax }}{4}}
\newlabel{fig:rms}{{3}{4}}
\@writefile{toc}{\contentsline {subsection}{\numberline {2.4}P2 (d)}{5}}
\@writefile{lof}{\contentsline {figure}{\numberline {4}{\ignorespaces spy of :1st-upwind EE\relax }}{5}}
\newlabel{fig:tricky}{{4}{5}}
\@writefile{lof}{\contentsline {figure}{\numberline {5}{\ignorespaces spy of 2nd-upwind EE\relax }}{5}}
\newlabel{fig:Lag_base}{{5}{5}}
\@writefile{lof}{\contentsline {figure}{\numberline {6}{\ignorespaces spy of 2nd-cds EE\relax }}{5}}
\newlabel{fig:Lag_base}{{6}{5}}
\@writefile{lof}{\contentsline {figure}{\numberline {7}{\ignorespaces spy of 1st-upwind Crank-Nicholson\relax }}{6}}
\newlabel{fig:Lag_base}{{7}{6}}
\@writefile{lof}{\contentsline {figure}{\numberline {8}{\ignorespaces spy of 2nd upwind Crank-Nicholson\relax }}{6}}
\newlabel{fig:Lag_base}{{8}{6}}
\@writefile{lof}{\contentsline {figure}{\numberline {9}{\ignorespaces spy of 2nd cds Crank-Nicholson\relax }}{6}}
\newlabel{fig:Lag_base}{{9}{6}}
\@writefile{toc}{\contentsline {subsection}{\numberline {2.5}P2 (e)}{6}}
\@writefile{lof}{\contentsline {figure}{\numberline {10}{\ignorespaces Spectral radius of Explicit Euler with three spatial discretion.\relax }}{7}}
\newlabel{fig:contour}{{10}{7}}
\@writefile{toc}{\contentsline {section}{\numberline {3}Problem 3}{8}}
\@writefile{toc}{\contentsline {subsection}{\numberline {3.1}P3 (a)}{8}}
\@writefile{toc}{\contentsline {subsubsection}{\numberline {3.1.1}Implement}{8}}
\@writefile{toc}{\contentsline {subsubsection}{\numberline {3.1.2}Result}{8}}
\@writefile{lof}{\contentsline {figure}{\numberline {11}{\ignorespaces Purely convection\relax }}{8}}
\newlabel{fig:covc}{{11}{8}}
\@writefile{lof}{\contentsline {figure}{\numberline {12}{\ignorespaces Purely diffusion\relax }}{9}}
\newlabel{fig:Lag_base}{{12}{9}}
\@writefile{lof}{\contentsline {figure}{\numberline {13}{\ignorespaces Purely dispersion\relax }}{10}}
\newlabel{fig:Lag_base}{{13}{10}}
\@writefile{lof}{\contentsline {figure}{\numberline {14}{\ignorespaces Combination of these three term\relax }}{11}}
\newlabel{fig:mix}{{14}{11}}
\@writefile{toc}{\contentsline {subsection}{\numberline {3.2}P3 (b)}{11}}
\@writefile{lof}{\contentsline {figure}{\numberline {15}{\ignorespaces Sample of Lagrangian basis with different number of stencils; N=3(left)\relax }}{12}}
\newlabel{fig:von}{{15}{12}}
\@writefile{lof}{\contentsline {figure}{\numberline {16}{\ignorespaces Sample of Lagrangian basis with different number of stencils; N=3(left)\relax }}{13}}
\newlabel{fig:Lag_base}{{16}{13}}
