\relax 
\select@language{english}
\@writefile{toc}{\select@language{english}}
\@writefile{lof}{\select@language{english}}
\@writefile{lot}{\select@language{english}}
\@writefile{toc}{\contentsline {section}{\numberline {1}Five equation model}{2}}
\newlabel{sec:ge}{{1}{2}}
\@writefile{toc}{\contentsline {section}{\numberline {2}Equation of state and flow configuration }{2}}
\@writefile{toc}{\contentsline {subsection}{\numberline {2.1}Stiffened gases}{2}}
\newlabel{sec:eos}{{2.1}{2}}
\newlabel{eq:eos}{{6}{2}}
\@writefile{lot}{\contentsline {table}{\numberline {1}{\ignorespaces Physical parameters for different closure condition\relax }}{3}}
\providecommand*\caption@xref[2]{\@setref\relax\@undefined{#1}}
\newlabel{tab:material}{{1}{3}}
\@writefile{toc}{\contentsline {subsection}{\numberline {2.2}Flow configuration }{3}}
\newlabel{sec:config}{{2.2}{3}}
\@writefile{lof}{\contentsline {figure}{\numberline {1}{\ignorespaces Initial field for volume fraction parameter $z$.\relax }}{3}}
\newlabel{fig:z field}{{1}{3}}
\@writefile{lof}{\contentsline {figure}{\numberline {2}{\ignorespaces Initial energy field for isobaric and isotermal case.\relax }}{3}}
\newlabel{fig:e field}{{2}{3}}
\@writefile{toc}{\contentsline {section}{\numberline {3}Closure condition}{4}}
\@writefile{toc}{\contentsline {subsection}{\numberline {3.1}Isobaric condition}{4}}
\newlabel{sec:iso-p}{{3.1}{4}}
\newlabel{eq:iso-p}{{8}{4}}
\newlabel{eq:iso-p-long}{{9}{4}}
\newlabel{eq:iso-p-mix}{{12}{4}}
\@writefile{toc}{\contentsline {subsubsection}{\numberline {3.1.1}result}{4}}
\@writefile{lof}{\contentsline {figure}{\numberline {3}{\ignorespaces Pressure (top) and temperature (bottom) at $t=0.02$ for isobaric closure\relax }}{4}}
\newlabel{fig:isobaric}{{3}{4}}
\@writefile{toc}{\contentsline {subsection}{\numberline {3.2}Isothermal condition}{5}}
\newlabel{sec:iso-T}{{3.2}{5}}
\newlabel{eq:iso-T}{{13}{5}}
\newlabel{eq:T-P}{{14}{5}}
\newlabel{eq:iso-T-long}{{15}{5}}
\newlabel{eq:iso-Tp-long}{{17}{5}}
\newlabel{eq:iso-T-mix}{{20}{5}}
\@writefile{toc}{\contentsline {subsubsection}{\numberline {3.2.1}result}{5}}
\@writefile{lof}{\contentsline {figure}{\numberline {4}{\ignorespaces Pressure (top) and temperature (bottom) at $t=0.02$ for isothermal closure\relax }}{5}}
\newlabel{fig:isothermal}{{4}{5}}
\@writefile{toc}{\contentsline {subsection}{\numberline {3.3}Isothermal condition with CSF}{6}}
\newlabel{sec:csf}{{3.3}{6}}
\newlabel{eq:pjump}{{21}{6}}
\newlabel{eq:kappa}{{22}{6}}
\newlabel{eq:kappa}{{23}{6}}
\newlabel{eq:kappa}{{24}{6}}
\@writefile{lof}{\contentsline {figure}{\numberline {5}{\ignorespaces Left: quiver plot of $\boldsymbol  {\mathrm  {F}}_{sf}$, right: magnitude of $|\boldsymbol  {\mathrm  {F}}_{sf}|$\relax }}{6}}
\newlabel{fig:isobaric}{{5}{6}}
\@writefile{lof}{\contentsline {figure}{\numberline {6}{\ignorespaces From top to bottom: volume fraction z, x-component of normal of interface, curvature and force on x-dir at $y=0$.\relax }}{7}}
\newlabel{fig:isobaric}{{6}{7}}
\@writefile{toc}{\contentsline {subsubsection}{\numberline {3.3.1}result}{7}}
\@writefile{lof}{\contentsline {figure}{\numberline {7}{\ignorespaces Acoustic wave propagation on static bubble.Left column: velocity u; middle : pressure; right column: temperature\relax }}{8}}
\newlabel{fig:csf}{{7}{8}}
\@writefile{lof}{\contentsline {figure}{\numberline {8}{\ignorespaces Blow up case with thinner interface.Left column: velocity u; middle : pressure; right column: temperature\relax }}{9}}
\newlabel{fig:blow}{{8}{9}}
\@writefile{toc}{\contentsline {section}{\numberline {4}Reference}{10}}
